Lab 4/partB/transcript
# vsim -c -coverage alu_tb -do "run 1000ns; coverage report -memory -cvg -details -file coverage_rep.txt;exit" 
# Start time: 19:09:49 on Apr 11,2022
# ** Note: (vsim-3812) Design is being optimized...
# ** Warning: alu_tb.sv(59): (vopt-2244) Variable 'cg_inst' is implicitly static. You must either explicitly declare it as static or automatic
# or remove the initialization in the declaration of variable.
# ** Warning: alu_tb.sv(25): (vopt-2240) Treating stand-alone use of function 'randomize' as an implicit VOID cast.
# ** Note: (vsim-12126) Error and warning message counts have been restored: Errors=0, Warnings=2.
# //  Questa Sim
# //  Version 2021.4_2 linux Dec  4 2021
# //
# //  Copyright 1991-2021 Mentor Graphics Corporation
# //  All Rights Reserved.
# //
# //  QuestaSim and its associated documentation contain trade
# //  secrets and commercial or financial information that are the property of
# //  Mentor Graphics Corporation and are privileged, confidential,
# //  and exempt from disclosure under the Freedom of Information Act,
# //  5 U.S.C. Section 552. Furthermore, this information
# //  is prohibited from disclosure under the Trade Secrets Act,
# //  18 U.S.C. Section 1905.
# //
# Loading sv_std.std
# Loading work.alu_tb_sv_unit(fast)
# Loading work.alu_tb(fast)
# Loading std.standard
# Loading std.textio(body)
# Loading ieee.std_logic_1164(body)
# Loading ieee.numeric_std(body)
# Loading work.alu(behavioral)#1
# run 1000ns
#         10  clk=1 a=00000000 b=00000000 op=000 r=00000000
#         30  clk=1 a=00111001 b=01110110 op=010 r=00000000
#         50  clk=1 a=01110000 b=00010100 op=110 r=11000110
#         70  clk=1 a=00000010 b=10000111 op=010 r=01110100
#         90  clk=1 a=00010010 b=01000111 op=010 r=11111101
#        110  clk=1 a=00010110 b=00101001 op=000 r=11101101
#        130  clk=1 a=01011110 b=00011010 op=000 r=00111111
#        150  clk=1 a=00011111 b=00001111 op=011 r=01111000
#        170  clk=1 a=00011110 b=10000010 op=010 r=11110000
#        190  clk=1 a=00011101 b=01111001 op=010 r=11100001
#        210  clk=1 a=01110001 b=00101000 op=011 r=11100010
#        230  clk=1 a=00011101 b=00100111 op=011 r=11011111
#        250  clk=1 a=00111010 b=11010011 op=001 r=11111010
#        270  clk=1 a=00010001 b=00010101 op=011 r=01100111
#        290  clk=1 a=01110111 b=00010100 op=100 r=11101110
#        310  clk=1 a=01100111 b=00110011 op=100 r=10001000
#        330  clk=1 a=00110101 b=10001101 op=100 r=10001000
#        350  clk=1 a=01110100 b=10000010 op=010 r=01000010
#        370  clk=1 a=01111011 b=01111001 op=100 r=10001011
#        390  clk=1 a=00000011 b=00011011 op=110 r=10000100
#        410  clk=1 a=00100110 b=10010001 op=010 r=00011011
#        430  clk=1 a=00001101 b=01100010 op=001 r=11011001
#        450  clk=1 a=00001101 b=00111001 op=001 r=10101011
#        470  clk=1 a=01111001 b=01100010 op=110 r=11010100
#        490  clk=1 a=01000000 b=01100111 op=010 r=01111011
#        510  clk=1 a=01111001 b=10100101 op=000 r=10111111
#        530  clk=1 a=00001100 b=01101111 op=000 r=00011110
#        550  clk=1 a=01110001 b=01011010 op=010 r=01111011
#        570  clk=1 a=00011110 b=01110001 op=000 r=10001110
#        590  clk=1 a=01001110 b=01000000 op=011 r=10001111
#        610  clk=1 a=01010000 b=01110010 op=110 r=10111111
#        630  clk=1 a=00101100 b=00011010 op=011 r=01110010
#        650  clk=1 a=00110010 b=10101101 op=011 r=11110111
#        670  clk=1 a=01011010 b=01100001 op=010 r=11011111
#        690  clk=1 a=00001001 b=00101011 op=011 r=10100101
#        710  clk=1 a=00010011 b=11010100 op=010 r=11110110
#        730  clk=1 a=00101101 b=11011000 op=010 r=11101100
#        750  clk=1 a=01000110 b=01100011 op=011 r=11010010
#        770  clk=1 a=00000100 b=11111000 op=011 r=10111101
#        790  clk=1 a=01111111 b=11101110 op=001 r=11111111
#        810  clk=1 a=00110100 b=00110001 op=010 r=10010001
#        830  clk=1 a=00111110 b=01001110 op=101 r=11001011
#        850  clk=1 a=01001010 b=10010110 op=010 r=00001110
#        870  clk=1 a=01010101 b=01110111 op=011 r=10110101
#        890  clk=1 a=01111100 b=01101110 op=010 r=10101010
#        910  clk=1 a=01010100 b=11001001 op=010 r=10000011
#        930  clk=1 a=00010010 b=01001100 op=011 r=10101011
#        950  clk=1 a=01101111 b=11011110 op=010 r=11111111
#        970  clk=1 a=00000010 b=01110011 op=001 r=10010000
#        990  clk=1 a=01001011 b=10011010 op=100 r=10001111
#  coverage report -memory -cvg -details -file coverage_rep.txt
# ** Warning: (vsim-19053) Option '-file' has been deprecated. Please use option '-output' instead.
# exit
# End time: 19:09:51 on Apr 11,2022, Elapsed time: 0:00:02
# Errors: 0, Warnings: 3
